threads,events,instances,total_time,copies_norm,processing_norm
1,400000.0,816006.0,2490048.4,78333.0,1726653.6
2,400000.0,816004.0,1297187.4,43707.8,893836.2
4,400000.0,816024.0,655162.8,22010.8,451954.8
8,400000.0,816024.0,350389.6,12517.9,246194.9
16,400000.0,816024.0,178002.8,6098.85,126518.2
32,400000.0,816024.0,90662.2,3057.275,63992.325
64,400000.0,816024.0,47308.4,1817.65,34130.1375
128,400000.0,816024.0,36412.0,2558.45,27336.1875
256,400000.0,816024.0,35005.2,4434.371875,26477.9375
